<svg width="24" height="24" viewBox="0 0 24 24" fill="none" xmlns="http://www.w3.org/2000/svg">
<path d="M6.5 4.5H13.7929L17.5 8.20711V19.5H6.5V4.5Z" stroke="black"/>
<path d="M14 8.5H17.5V19.5H6.5V4.5H13.5V8V8.5H14Z" stroke="black"/>
</svg>
